acgaf	-3  
ah	-3  
a**hole	-3
ahole	-3
a**h**e	-3
alol	3 
amf	-2  
arse	-3 
ashl	-3
a**h**e	-3
ashole	-3
a**h**e	-3
asshle	-3
a**h**e	-3
awes	3
awk	-2   
azhol	-3 
azz	-3
b&	-2
b.s.	-3  
bulls**t	-3
b1tch	-3  
b***h	-3
bamf	-4  
bamofo	-4 
bch	-3  
b***h	-3
beatch	-3 
beech	-3
beeoch	-3  
beezy	-3
beotch	-3
beyatch	-3
beyotch	-3
biatch	-3
biach	-3
bord	-3
bytch	-3
cg	3
dbag	-4 
d****ebag	-4
dmba*	-3
dumba**	-3
eabod	-3
ead	-3  
fu	-4
faggit	-3
faggot	-3
fah	4
fnny	4 
fucktard	-3
fuctard	-3
fugly	-3
g1	4
gaf	4
gd	3
gj	4
roflmfao	4
h8	-3 
h8t	-3
h8ed	-3
kuhl	3
kul	3
kute	3
kutgw	4
kuwl	3
kwl	3
l0lz	4
lalol	4
lmaol	4
lmaomtoaoa	4
lmaonade	4
lmaool	4 
lmaootf	4 
lmaorof	4
lmaorotf	4
lmaowrotf	4
lmaowtntpm	4
lmaoxh	4
lmfao	4
lofl	4
loflmao	4
lu2	3
lu2d	3
lu4l	3
otfl	3
otflmao	4
otflmfao	4
otflol	4
pima	-4
pimfa	-4
pimha	-4
raoflmao	4
rflmao	4
rofl	4
s.o.a.b.	-3
s.o.b.	-3
sfs	-3
tnx	3
tnxz	3
wrthls	-4
wrthlss	-4
wth	-4
wtf	-4